{
	"header": {
		"dataCode":"1",
		"typeCode":"06",
		"codeClsfctn":"1",
		"bsnsClsfctn":"40",
		"trnmstnDate":" ",
		"prcsdTime":" ",
		"agncRegnum":"",
		"brCode":"",
		"reserve":"    ",
		"constant":"1",
		"allZeros":"000000000000000000",
		"coyCode":"  ",
		"testClsfctn":"0",
		"cmprsnFlag":"0",
		"rcrdLength":"1702",
		"errCode":"         ",
		"fldforSndr":"                    ",
		"noOfSpltRcrds":"01",
		"hlproCtrlInfo":"                   ",
		"reserve2":"                                                                                                                                                                                                                                                                                                                                                                                                                                                                                                                                                                                                                                                                                                                                                                                                                                                                                                                                                                                                                                                                                                                                                                                                                                                                                                                                                                                                                                                                                                                                                                                                                                                "
	}
,
	"trailer": {
		"dataCode":"8",
		"noOfRcrds":"0000000000",
		"cgwSendRcrd":"          ",
		"errRcrd":"    ",
		"reserve":"                                                                                                                                                                                                                                                                                                                                                                                                                                                                                                                                                                                                                                                                                                                                                                                                                                                                                                                                                                                                                                                                                                                                                                                                                                                                                                                                                                                                                                                                                                                                                                                                                                                                                                                                             "
	}
,
	"end": {
		"dataCode":"9",
		"reserve":"                                                                                                                                                                                                                                                                                                                                                                                                                                                                                                                                                                                                                                                                                                                                                                                                                                                                                                                                                                                                                                                                                                                                                                                                                                                                                                                                                                                                                                                                                                                                                                                                                                                                                                                                                                     "
	}
,
	"dataFormat": {
		"datatype":"1",
		"insucate":"2",
		"bokcls":"1",
		"secunum":"12",
		"brnchnum":"5",
		"toi":"2",
		"mop":"1",
		"colcate":"1",
		"instal":"2",
		"kyocde":"1",
		"kyoacs":"4",
		"pcde":"1",
		"pacs":"4",
		"grpcde":"7",
		"affilcde":"10",
		"empcde":"15",
		"cgrpc":"1",
		"totprem":"10",
		"bckp":"3",
		"dpcde":"7",
		"brnchnum2":"10",
		"incpn":"6",
		"matrty":"6",
		"tncdte":"6",
		"trnendte":"6",
		"dteofapp":"6",
		"slfcrt":"1",
		"lpcc":"1",
		"dcde":"5",
		"oprtcde":"7",
		"postcde":"5",
		"cntadd":"70",
		"pnum":"12",
		"subnme":"70",
		"spfip":"10",
		"spltyp":"2",
		"pymntdte":"2",
		"fpdfgh":"4",
		"insyr":"2",
		"frstme":"2",
		"pprem":"10",
		"ppendatme":"4",
		"nwccls":"1",
		"ccps":"1",
		"ipactc":"1",
		"amor":"1",
		"grpcara":"1",
		"telphno":"3",
		"nwcmpncde":"2",
		"rftrns":"2",
		"margin":"18",
		"inacviwe":"1",
		"prosqnc":"10",
		"ynmrcd":"4",
		"inscmpnycde":"2",
		"insprocde":"14",
		"cmpnycde":"2",
		"prsnmekana":"20",
		"ipecflg":"1",
		"ipsftcde01":"1",
		"ipnmknji":"30",
		"ipsftcde02":"1",
		"ipdob":"8",
		"ipage":"3",
		"ipgndr":"1",
		"iprln":"2",
		"ipostcde":"8",
		"iaeflg":"1",
		"iashtcde01":"1",
		"iadrsknji":"100",
		"iashtcde02":"1",
		"pymntrt":"1",
		"lsprem":"10",
		"modundrprd":"2",
		"indcate":"1",
		"indcprd":"2",
		"dvndcls":"1",
		"pdexntdvw":"1",
		"attchngcls":"1",
		"appcate":"1",
		"ippyear":"3",
		"ppsdte":"8",
		"pasbdy":"1",
		"addscnt":"1",
		"norids":"3",
		"grpcde02":"8",
		"locde":"3",
		"exmcate":"1",
		"taxelg":"1",
		"lvnnds":"1",
		"bnsprem":"10",
		"bcagyr":"2",
		"opcde":"10",
		"mcctypcde":"7",
		"mccecflg":"1",
		"mccscde01":"1",
		"mccnmc":"16",
		"mccscde02":"1",
		"mccppa":"11",
		"mccitc":"1",
		"mccip":"2",
		"mccppc":"1",
		"mccpp":"2",
		"sa01typcde":"7",
		"sa01ecflg":"1",
		"sa01scde01":"1",
		"sa01nme":"16",
		"sa01scde02":"1",
		"sa01sins":"11",
		"sa01itc":"1",
		"sa01insprd":"2",
		"sa01ppc":"1",
		"sa01pp":"2",
		"sa02typcde":"7",
		"sa02ecflg":"1",
		"sa02scde01":"1",
		"sa02nme":"16",
		"sa02scde02":"1",
		"sa02sins":"11",
		"sa02itc":"1",
		"sa02insprd":"2",
		"sa02ppc":"1",
		"sa02pp":"2",
		"sa03typcde":"7",
		"sa03ecflg":"1",
		"sa03scde01":"1",
		"sa03nme":"16",
		"sa03scde02":"1",
		"sa03sins":"11",
		"sa03itc":"1",
		"sa03insprd":"2",
		"sa03ppc":"1",
		"sa03pp":"2",
		"sa04typcde":"7",
		"sa04ecflg":"1",
		"sa04scde01":"1",
		"sa04nme":"16",
		"sa04scde02":"1",
		"sa04sins":"11",
		"sa04itc":"1",
		"sa04insprd":"2",
		"sa04ppc":"1",
		"sa04pp":"2",
		"sa05typcde":"7",
		"saecflg5":"1",
		"sa05scde01":"1",
		"sa05nme":"16",
		"sa05scde02":"1",
		"sa05sins":"11",
		"sa05itc":"1",
		"sa05insprd":"2",
		"sa05ppc":"1",
		"sa05pp":"2",
		"sa06typcde":"7",
		"sa06ecflg":"1",
		"sa06scde01":"1",
		"sa06nme":"16",
		"sa06scde02":"1",
		"sa06sins":"11",
		"sa06itc":"1",
		"sa06insprd":"2",
		"sa06ppc":"1",
		"sa06pp":"2",
		"ustatcate":"2",
		"cmec":"1",
		"cifccc":"1",
		"asmcde":"12",
		"lircde":"13",
		"acctyp":"1",
		"accno":"7",
		"lcode":"5",
		"dthbnft":"6",
		"racate":"1",
		"dtypcde":"2",
		"caic":"1",
		"cnticnrct":"1",
		"tncp":"10",
		"wrkplc":"25",
		"bphno":"12",
		"cmgntcde":"12",
		"lncde":"4",
		"osnocc":"2",
		"osnmn":"12",
		"osnbn":"5",
		"grpcrtlno":"25",
		"scno":"15",
		"grpinsnme":"20",
		"crsnme":"12",
		"type":"6",
		"nounits":"2",
		"agregno":"11",
		"agcde01":"10",
		"agcde02":"10",
		"caflgscde01":"1",
		"canknjiecflg":"1",
		"caflgadrs":"100",
		"cnkjicflgscd":"1",
		"caflgscde02":"1",
		"cnflgscde":"1",
		"spnmknji":"60",
		"spnmscde":"1",
		"dtechgprem":"6",
		"modinstprem":"10",
		"premlncrt":"1",
		"dobph":"8",
		"cgender":"1",
		"bphno02":"3",
		"bckup01":"8",
		"cmpnyter":"120",
		"pstrtflg":"1",
		"antypymnt":"10",
		"anpenpymnt":"2",
		"pensnfund":"10",
		"pensncrtno":"12",
		"payecate":"1",
		"appno":"20",
		"bckup02":"24",
		"corpterty":"100"
	}
}